<?xml version="1.0" encoding="UTF-8"?>
<testsuite xmlns:xsi="http://www.w3.org/2001/XMLSchema-instance" xsi:noNamespaceSchemaLocation="https://maven.apache.org/surefire/maven-surefire-plugin/xsd/surefire-test-report.xsd" name="runner.Runner" time="1.708" tests="1" errors="0" skipped="0" failures="0">
  <properties>
    <property name="java.specification.version" value="17"/>
    <property name="sun.jnu.encoding" value="UTF-8"/>
    <property name="java.class.path" value="/Users/uluslu/IdeaProjects/SQLProject02TestNGFrameworkForDBTesting/target/test-classes:/Users/uluslu/IdeaProjects/SQLProject02TestNGFrameworkForDBTesting/target/classes:/Users/uluslu/.m2/repository/org/testng/testng/7.4.0/testng-7.4.0.jar:/Users/uluslu/.m2/repository/com/beust/jcommander/1.78/jcommander-1.78.jar:/Users/uluslu/.m2/repository/org/webjars/jquery/3.5.1/jquery-3.5.1.jar:/Users/uluslu/.m2/repository/io/cucumber/cucumber-testng/6.10.4/cucumber-testng-6.10.4.jar:/Users/uluslu/.m2/repository/org/apiguardian/apiguardian-api/1.1.1/apiguardian-api-1.1.1.jar:/Users/uluslu/.m2/repository/org/seleniumhq/selenium/selenium-java/3.12.0/selenium-java-3.12.0.jar:/Users/uluslu/.m2/repository/org/seleniumhq/selenium/selenium-api/3.12.0/selenium-api-3.12.0.jar:/Users/uluslu/.m2/repository/org/seleniumhq/selenium/selenium-chrome-driver/3.12.0/selenium-chrome-driver-3.12.0.jar:/Users/uluslu/.m2/repository/org/seleniumhq/selenium/selenium-edge-driver/3.12.0/selenium-edge-driver-3.12.0.jar:/Users/uluslu/.m2/repository/org/seleniumhq/selenium/selenium-firefox-driver/3.12.0/selenium-firefox-driver-3.12.0.jar:/Users/uluslu/.m2/repository/org/seleniumhq/selenium/selenium-ie-driver/3.12.0/selenium-ie-driver-3.12.0.jar:/Users/uluslu/.m2/repository/org/seleniumhq/selenium/selenium-opera-driver/3.12.0/selenium-opera-driver-3.12.0.jar:/Users/uluslu/.m2/repository/org/seleniumhq/selenium/selenium-remote-driver/3.12.0/selenium-remote-driver-3.12.0.jar:/Users/uluslu/.m2/repository/org/seleniumhq/selenium/selenium-safari-driver/3.12.0/selenium-safari-driver-3.12.0.jar:/Users/uluslu/.m2/repository/org/seleniumhq/selenium/selenium-support/3.12.0/selenium-support-3.12.0.jar:/Users/uluslu/.m2/repository/net/bytebuddy/byte-buddy/1.8.3/byte-buddy-1.8.3.jar:/Users/uluslu/.m2/repository/org/apache/commons/commons-exec/1.3/commons-exec-1.3.jar:/Users/uluslu/.m2/repository/commons-codec/commons-codec/1.10/commons-codec-1.10.jar:/Users/uluslu/.m2/repository/commons-logging/commons-logging/1.2/commons-logging-1.2.jar:/Users/uluslu/.m2/repository/com/google/code/gson/gson/2.8.2/gson-2.8.2.jar:/Users/uluslu/.m2/repository/com/google/guava/guava/23.6-jre/guava-23.6-jre.jar:/Users/uluslu/.m2/repository/com/google/code/findbugs/jsr305/1.3.9/jsr305-1.3.9.jar:/Users/uluslu/.m2/repository/org/checkerframework/checker-compat-qual/2.0.0/checker-compat-qual-2.0.0.jar:/Users/uluslu/.m2/repository/com/google/errorprone/error_prone_annotations/2.1.3/error_prone_annotations-2.1.3.jar:/Users/uluslu/.m2/repository/com/google/j2objc/j2objc-annotations/1.1/j2objc-annotations-1.1.jar:/Users/uluslu/.m2/repository/org/codehaus/mojo/animal-sniffer-annotations/1.14/animal-sniffer-annotations-1.14.jar:/Users/uluslu/.m2/repository/org/apache/httpcomponents/httpclient/4.5.3/httpclient-4.5.3.jar:/Users/uluslu/.m2/repository/org/apache/httpcomponents/httpcore/4.4.6/httpcore-4.4.6.jar:/Users/uluslu/.m2/repository/com/squareup/okhttp3/okhttp/3.9.1/okhttp-3.9.1.jar:/Users/uluslu/.m2/repository/com/squareup/okio/okio/1.13.0/okio-1.13.0.jar:/Users/uluslu/.m2/repository/io/github/bonigarcia/webdrivermanager/2.1.0/webdrivermanager-2.1.0.jar:/Users/uluslu/.m2/repository/org/slf4j/slf4j-api/1.7.24/slf4j-api-1.7.24.jar:/Users/uluslu/.m2/repository/commons-io/commons-io/2.5/commons-io-2.5.jar:/Users/uluslu/.m2/repository/org/apache/commons/commons-lang3/3.5/commons-lang3-3.5.jar:/Users/uluslu/.m2/repository/org/rauschig/jarchivelib/0.7.1/jarchivelib-0.7.1.jar:/Users/uluslu/.m2/repository/org/apache/commons/commons-compress/1.9/commons-compress-1.9.jar:/Users/uluslu/.m2/repository/org/jsoup/jsoup/1.10.2/jsoup-1.10.2.jar:/Users/uluslu/.m2/repository/io/cucumber/cucumber-java/6.10.3/cucumber-java-6.10.3.jar:/Users/uluslu/.m2/repository/io/cucumber/cucumber-picocontainer/6.10.3/cucumber-picocontainer-6.10.3.jar:/Users/uluslu/.m2/repository/org/picocontainer/picocontainer/2.15/picocontainer-2.15.jar:/Users/uluslu/.m2/repository/log4j/log4j/1.2.17/log4j-1.2.17.jar:/Users/uluslu/.m2/repository/io/cucumber/gherkin/18.1.1/gherkin-18.1.1.jar:/Users/uluslu/.m2/repository/io/cucumber/messages/15.0.0/messages-15.0.0.jar:/Users/uluslu/.m2/repository/io/cucumber/cucumber-core/6.10.3/cucumber-core-6.10.3.jar:/Users/uluslu/.m2/repository/io/cucumber/cucumber-gherkin/6.10.3/cucumber-gherkin-6.10.3.jar:/Users/uluslu/.m2/repository/io/cucumber/cucumber-gherkin-messages/6.10.3/cucumber-gherkin-messages-6.10.3.jar:/Users/uluslu/.m2/repository/io/cucumber/tag-expressions/3.0.1/tag-expressions-3.0.1.jar:/Users/uluslu/.m2/repository/io/cucumber/cucumber-expressions/10.3.0/cucumber-expressions-10.3.0.jar:/Users/uluslu/.m2/repository/io/cucumber/datatable/3.5.0/datatable-3.5.0.jar:/Users/uluslu/.m2/repository/io/cucumber/cucumber-plugin/6.10.3/cucumber-plugin-6.10.3.jar:/Users/uluslu/.m2/repository/io/cucumber/docstring/6.10.3/docstring-6.10.3.jar:/Users/uluslu/.m2/repository/io/cucumber/html-formatter/13.0.0/html-formatter-13.0.0.jar:/Users/uluslu/.m2/repository/io/cucumber/create-meta/4.0.0/create-meta-4.0.0.jar:/Users/uluslu/.m2/repository/org/apache/logging/log4j/log4j-api/2.14.1/log4j-api-2.14.1.jar:/Users/uluslu/.m2/repository/org/apache/logging/log4j/log4j-core/2.14.1/log4j-core-2.14.1.jar:/Users/uluslu/.m2/repository/com/oracle/database/jdbc/ojdbc8/21.5.0.0/ojdbc8-21.5.0.0.jar:/Users/uluslu/.m2/repository/net/masterthought/cucumber-reporting/4.6.0/cucumber-reporting-4.6.0.jar:/Users/uluslu/.m2/repository/com/fasterxml/jackson/core/jackson-databind/2.9.8/jackson-databind-2.9.8.jar:/Users/uluslu/.m2/repository/com/fasterxml/jackson/core/jackson-annotations/2.9.0/jackson-annotations-2.9.0.jar:/Users/uluslu/.m2/repository/com/fasterxml/jackson/core/jackson-core/2.9.8/jackson-core-2.9.8.jar:/Users/uluslu/.m2/repository/org/apache/velocity/velocity/1.7/velocity-1.7.jar:/Users/uluslu/.m2/repository/commons-collections/commons-collections/3.2.1/commons-collections-3.2.1.jar:/Users/uluslu/.m2/repository/commons-lang/commons-lang/2.4/commons-lang-2.4.jar:/Users/uluslu/.m2/repository/velocity-tools/velocity-tools/1.4/velocity-tools-1.4.jar:/Users/uluslu/.m2/repository/joda-time/joda-time/2.10.1/joda-time-2.10.1.jar:/Users/uluslu/.m2/repository/org/codehaus/plexus/plexus-utils/3.1.1/plexus-utils-3.1.1.jar:/Users/uluslu/.m2/repository/com/googlecode/owasp-java-html-sanitizer/owasp-java-html-sanitizer/20190325.1/owasp-java-html-sanitizer-20190325.1.jar:/Users/uluslu/.m2/repository/commons-configuration/commons-configuration/1.10/commons-configuration-1.10.jar:/Users/uluslu/.m2/repository/org/apache/poi/poi/3.7/poi-3.7.jar:/Users/uluslu/.m2/repository/org/apache/poi/poi-ooxml/3.9/poi-ooxml-3.9.jar:/Users/uluslu/.m2/repository/org/apache/poi/poi-ooxml-schemas/3.9/poi-ooxml-schemas-3.9.jar:/Users/uluslu/.m2/repository/org/apache/xmlbeans/xmlbeans/2.3.0/xmlbeans-2.3.0.jar:/Users/uluslu/.m2/repository/stax/stax-api/1.0.1/stax-api-1.0.1.jar:/Users/uluslu/.m2/repository/dom4j/dom4j/1.6.1/dom4j-1.6.1.jar:/Users/uluslu/.m2/repository/xml-apis/xml-apis/1.0.b2/xml-apis-1.0.b2.jar:/Users/uluslu/.m2/repository/org/apache/maven/surefire/surefire-testng-utils/2.21.0/surefire-testng-utils-2.21.0.jar:/Users/uluslu/.m2/repository/org/apache/maven/surefire/surefire-grouper/2.21.0/surefire-grouper-2.21.0.jar:"/>
    <property name="java.vm.vendor" value="Homebrew"/>
    <property name="sun.arch.data.model" value="64"/>
    <property name="java.vendor.url" value="https://github.com/Homebrew/homebrew-core/issues"/>
    <property name="os.name" value="Mac OS X"/>
    <property name="java.vm.specification.version" value="17"/>
    <property name="sun.java.launcher" value="SUN_STANDARD"/>
    <property name="user.country" value="US"/>
    <property name="sun.boot.library.path" value="/opt/homebrew/Cellar/openjdk/17.0.1_1/libexec/openjdk.jdk/Contents/Home/lib"/>
    <property name="sun.java.command" value="/Users/uluslu/IdeaProjects/SQLProject02TestNGFrameworkForDBTesting/target/surefire/surefirebooter12271704466383523555.jar /Users/uluslu/IdeaProjects/SQLProject02TestNGFrameworkForDBTesting/target/surefire 2022-02-21T02-44-49_149-jvmRun1 surefire16383211498088098229tmp surefire_014835324001981543205tmp"/>
    <property name="http.nonProxyHosts" value="local|*.local|169.254/16|*.169.254/16"/>
    <property name="jdk.debug" value="release"/>
    <property name="surefire.test.class.path" value="/Users/uluslu/IdeaProjects/SQLProject02TestNGFrameworkForDBTesting/target/test-classes:/Users/uluslu/IdeaProjects/SQLProject02TestNGFrameworkForDBTesting/target/classes:/Users/uluslu/.m2/repository/org/testng/testng/7.4.0/testng-7.4.0.jar:/Users/uluslu/.m2/repository/com/beust/jcommander/1.78/jcommander-1.78.jar:/Users/uluslu/.m2/repository/org/webjars/jquery/3.5.1/jquery-3.5.1.jar:/Users/uluslu/.m2/repository/io/cucumber/cucumber-testng/6.10.4/cucumber-testng-6.10.4.jar:/Users/uluslu/.m2/repository/org/apiguardian/apiguardian-api/1.1.1/apiguardian-api-1.1.1.jar:/Users/uluslu/.m2/repository/org/seleniumhq/selenium/selenium-java/3.12.0/selenium-java-3.12.0.jar:/Users/uluslu/.m2/repository/org/seleniumhq/selenium/selenium-api/3.12.0/selenium-api-3.12.0.jar:/Users/uluslu/.m2/repository/org/seleniumhq/selenium/selenium-chrome-driver/3.12.0/selenium-chrome-driver-3.12.0.jar:/Users/uluslu/.m2/repository/org/seleniumhq/selenium/selenium-edge-driver/3.12.0/selenium-edge-driver-3.12.0.jar:/Users/uluslu/.m2/repository/org/seleniumhq/selenium/selenium-firefox-driver/3.12.0/selenium-firefox-driver-3.12.0.jar:/Users/uluslu/.m2/repository/org/seleniumhq/selenium/selenium-ie-driver/3.12.0/selenium-ie-driver-3.12.0.jar:/Users/uluslu/.m2/repository/org/seleniumhq/selenium/selenium-opera-driver/3.12.0/selenium-opera-driver-3.12.0.jar:/Users/uluslu/.m2/repository/org/seleniumhq/selenium/selenium-remote-driver/3.12.0/selenium-remote-driver-3.12.0.jar:/Users/uluslu/.m2/repository/org/seleniumhq/selenium/selenium-safari-driver/3.12.0/selenium-safari-driver-3.12.0.jar:/Users/uluslu/.m2/repository/org/seleniumhq/selenium/selenium-support/3.12.0/selenium-support-3.12.0.jar:/Users/uluslu/.m2/repository/net/bytebuddy/byte-buddy/1.8.3/byte-buddy-1.8.3.jar:/Users/uluslu/.m2/repository/org/apache/commons/commons-exec/1.3/commons-exec-1.3.jar:/Users/uluslu/.m2/repository/commons-codec/commons-codec/1.10/commons-codec-1.10.jar:/Users/uluslu/.m2/repository/commons-logging/commons-logging/1.2/commons-logging-1.2.jar:/Users/uluslu/.m2/repository/com/google/code/gson/gson/2.8.2/gson-2.8.2.jar:/Users/uluslu/.m2/repository/com/google/guava/guava/23.6-jre/guava-23.6-jre.jar:/Users/uluslu/.m2/repository/com/google/code/findbugs/jsr305/1.3.9/jsr305-1.3.9.jar:/Users/uluslu/.m2/repository/org/checkerframework/checker-compat-qual/2.0.0/checker-compat-qual-2.0.0.jar:/Users/uluslu/.m2/repository/com/google/errorprone/error_prone_annotations/2.1.3/error_prone_annotations-2.1.3.jar:/Users/uluslu/.m2/repository/com/google/j2objc/j2objc-annotations/1.1/j2objc-annotations-1.1.jar:/Users/uluslu/.m2/repository/org/codehaus/mojo/animal-sniffer-annotations/1.14/animal-sniffer-annotations-1.14.jar:/Users/uluslu/.m2/repository/org/apache/httpcomponents/httpclient/4.5.3/httpclient-4.5.3.jar:/Users/uluslu/.m2/repository/org/apache/httpcomponents/httpcore/4.4.6/httpcore-4.4.6.jar:/Users/uluslu/.m2/repository/com/squareup/okhttp3/okhttp/3.9.1/okhttp-3.9.1.jar:/Users/uluslu/.m2/repository/com/squareup/okio/okio/1.13.0/okio-1.13.0.jar:/Users/uluslu/.m2/repository/io/github/bonigarcia/webdrivermanager/2.1.0/webdrivermanager-2.1.0.jar:/Users/uluslu/.m2/repository/org/slf4j/slf4j-api/1.7.24/slf4j-api-1.7.24.jar:/Users/uluslu/.m2/repository/commons-io/commons-io/2.5/commons-io-2.5.jar:/Users/uluslu/.m2/repository/org/apache/commons/commons-lang3/3.5/commons-lang3-3.5.jar:/Users/uluslu/.m2/repository/org/rauschig/jarchivelib/0.7.1/jarchivelib-0.7.1.jar:/Users/uluslu/.m2/repository/org/apache/commons/commons-compress/1.9/commons-compress-1.9.jar:/Users/uluslu/.m2/repository/org/jsoup/jsoup/1.10.2/jsoup-1.10.2.jar:/Users/uluslu/.m2/repository/io/cucumber/cucumber-java/6.10.3/cucumber-java-6.10.3.jar:/Users/uluslu/.m2/repository/io/cucumber/cucumber-picocontainer/6.10.3/cucumber-picocontainer-6.10.3.jar:/Users/uluslu/.m2/repository/org/picocontainer/picocontainer/2.15/picocontainer-2.15.jar:/Users/uluslu/.m2/repository/log4j/log4j/1.2.17/log4j-1.2.17.jar:/Users/uluslu/.m2/repository/io/cucumber/gherkin/18.1.1/gherkin-18.1.1.jar:/Users/uluslu/.m2/repository/io/cucumber/messages/15.0.0/messages-15.0.0.jar:/Users/uluslu/.m2/repository/io/cucumber/cucumber-core/6.10.3/cucumber-core-6.10.3.jar:/Users/uluslu/.m2/repository/io/cucumber/cucumber-gherkin/6.10.3/cucumber-gherkin-6.10.3.jar:/Users/uluslu/.m2/repository/io/cucumber/cucumber-gherkin-messages/6.10.3/cucumber-gherkin-messages-6.10.3.jar:/Users/uluslu/.m2/repository/io/cucumber/tag-expressions/3.0.1/tag-expressions-3.0.1.jar:/Users/uluslu/.m2/repository/io/cucumber/cucumber-expressions/10.3.0/cucumber-expressions-10.3.0.jar:/Users/uluslu/.m2/repository/io/cucumber/datatable/3.5.0/datatable-3.5.0.jar:/Users/uluslu/.m2/repository/io/cucumber/cucumber-plugin/6.10.3/cucumber-plugin-6.10.3.jar:/Users/uluslu/.m2/repository/io/cucumber/docstring/6.10.3/docstring-6.10.3.jar:/Users/uluslu/.m2/repository/io/cucumber/html-formatter/13.0.0/html-formatter-13.0.0.jar:/Users/uluslu/.m2/repository/io/cucumber/create-meta/4.0.0/create-meta-4.0.0.jar:/Users/uluslu/.m2/repository/org/apache/logging/log4j/log4j-api/2.14.1/log4j-api-2.14.1.jar:/Users/uluslu/.m2/repository/org/apache/logging/log4j/log4j-core/2.14.1/log4j-core-2.14.1.jar:/Users/uluslu/.m2/repository/com/oracle/database/jdbc/ojdbc8/21.5.0.0/ojdbc8-21.5.0.0.jar:/Users/uluslu/.m2/repository/net/masterthought/cucumber-reporting/4.6.0/cucumber-reporting-4.6.0.jar:/Users/uluslu/.m2/repository/com/fasterxml/jackson/core/jackson-databind/2.9.8/jackson-databind-2.9.8.jar:/Users/uluslu/.m2/repository/com/fasterxml/jackson/core/jackson-annotations/2.9.0/jackson-annotations-2.9.0.jar:/Users/uluslu/.m2/repository/com/fasterxml/jackson/core/jackson-core/2.9.8/jackson-core-2.9.8.jar:/Users/uluslu/.m2/repository/org/apache/velocity/velocity/1.7/velocity-1.7.jar:/Users/uluslu/.m2/repository/commons-collections/commons-collections/3.2.1/commons-collections-3.2.1.jar:/Users/uluslu/.m2/repository/commons-lang/commons-lang/2.4/commons-lang-2.4.jar:/Users/uluslu/.m2/repository/velocity-tools/velocity-tools/1.4/velocity-tools-1.4.jar:/Users/uluslu/.m2/repository/joda-time/joda-time/2.10.1/joda-time-2.10.1.jar:/Users/uluslu/.m2/repository/org/codehaus/plexus/plexus-utils/3.1.1/plexus-utils-3.1.1.jar:/Users/uluslu/.m2/repository/com/googlecode/owasp-java-html-sanitizer/owasp-java-html-sanitizer/20190325.1/owasp-java-html-sanitizer-20190325.1.jar:/Users/uluslu/.m2/repository/commons-configuration/commons-configuration/1.10/commons-configuration-1.10.jar:/Users/uluslu/.m2/repository/org/apache/poi/poi/3.7/poi-3.7.jar:/Users/uluslu/.m2/repository/org/apache/poi/poi-ooxml/3.9/poi-ooxml-3.9.jar:/Users/uluslu/.m2/repository/org/apache/poi/poi-ooxml-schemas/3.9/poi-ooxml-schemas-3.9.jar:/Users/uluslu/.m2/repository/org/apache/xmlbeans/xmlbeans/2.3.0/xmlbeans-2.3.0.jar:/Users/uluslu/.m2/repository/stax/stax-api/1.0.1/stax-api-1.0.1.jar:/Users/uluslu/.m2/repository/dom4j/dom4j/1.6.1/dom4j-1.6.1.jar:/Users/uluslu/.m2/repository/xml-apis/xml-apis/1.0.b2/xml-apis-1.0.b2.jar:/Users/uluslu/.m2/repository/org/apache/maven/surefire/surefire-testng-utils/2.21.0/surefire-testng-utils-2.21.0.jar:/Users/uluslu/.m2/repository/org/apache/maven/surefire/surefire-grouper/2.21.0/surefire-grouper-2.21.0.jar:"/>
    <property name="sun.cpu.endian" value="little"/>
    <property name="user.home" value="/Users/uluslu"/>
    <property name="user.language" value="en"/>
    <property name="java.specification.vendor" value="Oracle Corporation"/>
    <property name="java.version.date" value="2021-10-19"/>
    <property name="java.home" value="/opt/homebrew/Cellar/openjdk/17.0.1_1/libexec/openjdk.jdk/Contents/Home"/>
    <property name="file.separator" value="/"/>
    <property name="basedir" value="/Users/uluslu/IdeaProjects/SQLProject02TestNGFrameworkForDBTesting"/>
    <property name="java.vm.compressedOopsMode" value="Zero based"/>
    <property name="line.separator" value="&#10;"/>
    <property name="java.specification.name" value="Java Platform API Specification"/>
    <property name="java.vm.specification.vendor" value="Oracle Corporation"/>
    <property name="surefire.real.class.path" value="/Users/uluslu/IdeaProjects/SQLProject02TestNGFrameworkForDBTesting/target/surefire/surefirebooter12271704466383523555.jar"/>
    <property name="sun.management.compiler" value="HotSpot 64-Bit Tiered Compilers"/>
    <property name="ftp.nonProxyHosts" value="local|*.local|169.254/16|*.169.254/16"/>
    <property name="java.runtime.version" value="17.0.1+1"/>
    <property name="user.name" value="uluslu"/>
    <property name="path.separator" value=":"/>
    <property name="os.version" value="12.2.1"/>
    <property name="java.runtime.name" value="OpenJDK Runtime Environment"/>
    <property name="file.encoding" value="UTF-8"/>
    <property name="java.vm.name" value="OpenJDK 64-Bit Server VM"/>
    <property name="java.vendor.version" value="Homebrew"/>
    <property name="localRepository" value="/Users/uluslu/.m2/repository"/>
    <property name="java.vendor.url.bug" value="https://github.com/Homebrew/homebrew-core/issues"/>
    <property name="java.io.tmpdir" value="/var/folders/cd/hw0f1nrx5bd90rl3llvftm5r0000gn/T/"/>
    <property name="java.version" value="17.0.1"/>
    <property name="user.dir" value="/Users/uluslu/IdeaProjects/SQLProject02TestNGFrameworkForDBTesting"/>
    <property name="os.arch" value="aarch64"/>
    <property name="java.vm.specification.name" value="Java Virtual Machine Specification"/>
    <property name="native.encoding" value="UTF-8"/>
    <property name="java.library.path" value="/Users/uluslu/Library/Java/Extensions:/Library/Java/Extensions:/Network/Library/Java/Extensions:/System/Library/Java/Extensions:/usr/lib/java:."/>
    <property name="java.vm.info" value="mixed mode, sharing"/>
    <property name="java.vendor" value="Homebrew"/>
    <property name="java.vm.version" value="17.0.1+1"/>
    <property name="sun.io.unicode.encoding" value="UnicodeBig"/>
    <property name="socksNonProxyHosts" value="local|*.local|169.254/16|*.169.254/16"/>
    <property name="java.class.version" value="61.0"/>
  </properties>
  <testcase name="runScenario" classname="runner.Runner" time="0.78"/>
</testsuite>